{
    "KPlugin": {
        "Authors": [
            {
                "Email": "ematirov@gmail.com",
                "Name": "Mikhail Ivchenko",
                "Name[az]": "Mikhail Ivchenko",
                "Name[ca]": "Mikhail Ivchenko",
                "Name[cs]": "Mikhail Ivchenko",
                "Name[en_GB]": "Mikhail Ivchenko",
                "Name[es]": "Mikhail Ivchenko",
                "Name[fr]": "Mikhail Ivchenko",
                "Name[it]": "Mikhail Ivchenko",
                "Name[nl]": "Mikhail Ivchenko",
                "Name[pt]": "Mikhail Ivchenko",
                "Name[pt_BR]": "Mikhail Ivchenko",
                "Name[sv]": "Mikhail Ivchenko",
                "Name[uk]": "Михайло Івченко",
                "Name[vi]": "Mikhail Ivchenko",
                "Name[x-test]": "xxMikhail Ivchenkoxx"
            }
        ],
        "Category": "Online Services",
        "Description": "Add a webpage on your desktop.",
        "Description[az]": "Veb səhifəni İş Masanızda göstərir",
        "Description[ca]": "Afegeix una pàgina web a l'escriptori.",
        "Description[en_GB]": "Add a webpage on your desktop.",
        "Description[es]": "Añadir una página web al escritorio.",
        "Description[fr]": "Ajouter une page Internet à votre bureau.",
        "Description[it]": "Aggiungi una pagina web al tuo desktop.",
        "Description[nl]": "Een webpagina toevoegen aan uw bureaublad.",
        "Description[pt]": "Adicionar uma página Web ao seu ecrã.",
        "Description[pt_BR]": "Adiciona um site na sua área de trabalho.",
        "Description[sv]": "Lägg till en webbsida på skrivbordet.",
        "Description[uk]": "Додати сторінку інтернету на вашу стільницю.",
        "Description[vi]": "Thêm một trang web vào bàn làm việc",
        "Description[x-test]": "xxAdd a webpage on your desktop.xx",
        "Icon": "applications-internet",
        "Id": "org.kde.plasma.webbrowser",
        "License": "GPL-2.0+",
        "Name": "Web browser",
        "Name[ar]": "متصفّح الوبّ",
        "Name[az]": "Veb Bələdçi",
        "Name[ca]": "Navegador web",
        "Name[cs]": "Webový prohlížeč",
        "Name[en_GB]": "Web browser",
        "Name[es]": "Navegador web",
        "Name[fr]": "Navigateur Internet",
        "Name[it]": "Browser web",
        "Name[nl]": "Webbrowser",
        "Name[pt]": "Navegador Web",
        "Name[pt_BR]": "Navegador",
        "Name[sv]": "Webbläsare",
        "Name[uk]": "Переглядач інтернету",
        "Name[vi]": "Trình duyệt web",
        "Name[x-test]": "xxWeb browserxx",
        "ServiceTypes": [
            "Plasma/Applet"
        ],
        "Version": "0.2.0",
        "Website": "https://kde.org/plasma-desktop"
    },
    "X-KDE-ParentApp": "",
    "X-Plasma-API": "declarativeappletscript",
    "X-Plasma-MainScript": "ui/main.qml",
    "X-Plasma-StandAloneApp": true
}
