{
    "KPlugin": {
        "Authors": [
            {
                "Email": "plasma-devel@kde.org",
                "Name": "The Plasma Team",
                "Name[az]": "Plasma komandası",
                "Name[ca]": "L'equip del Plasma",
                "Name[cs]": "Team Plasma",
                "Name[en_GB]": "The Plasma Team",
                "Name[es]": "El equipo de Plasma",
                "Name[fr]": "L'équipe de Plasma",
                "Name[it]": "La squadra di Plasma",
                "Name[nl]": "Het team van Plasma",
                "Name[pt]": "A Equipa do Plasma",
                "Name[pt_BR]": "A equipe do Plasma",
                "Name[sv]": "Plasma-gruppen",
                "Name[uk]": "Команда розробників Плазми",
                "Name[vi]": "Đội ngũ Plasma",
                "Name[x-test]": "xxThe Plasma Teamxx"
            }
        ],
        "Category": "Language",
        "Description": "Look up the meaning of words and their translation into different languages",
        "Description[ar]": "انظر معاني الكلمات و ترجمتها بلغات مختلفة",
        "Description[az]": "Müxtəlif dillərdə sözlərin izahına və tərcüməsinə baxın",
        "Description[ca]": "Cerca el significat de paraules i la seva traducció en diferents idiomes",
        "Description[cs]": "Vyhledat význam slov a jejich překlad do různých jazyků",
        "Description[en_GB]": "Look up the meaning of words and their translation into different languages",
        "Description[es]": "Buscar el significado de palabras y su traducción a otros idiomas",
        "Description[fr]": "Rechercher le sens des mots et leur traduction dans différentes langues.",
        "Description[it]": "Cerca il significato delle parole e la loro traduzione in diverse lingue",
        "Description[nl]": "Zoek de betekenis van woorden en hun vertaling in verschillende talen op",
        "Description[pt]": "Procurar o significado das palavras e a sua tradução para várias línguas",
        "Description[pt_BR]": "Procura o significado de palavras e a tradução para vários idiomas",
        "Description[sv]": "Slå upp betydelsen hos ord och deras översättning till olika språk",
        "Description[uk]": "Погляньте на значення слів та на їхній переклад іншими мовами",
        "Description[vi]": "Tra nghĩa của các từ và phần dịch của chúng sang các ngôn ngữ khác nhau",
        "Description[x-test]": "xxLook up the meaning of words and their translation into different languagesxx",
        "EnabledByDefault": true,
        "Icon": "accessories-dictionary",
        "Id": "org.kde.plasma_applet_dict",
        "License": "GPL-2.0+",
        "Name": "Dictionary",
        "Name[ar]": "قاموس",
        "Name[az]": "Lüğət",
        "Name[ca]": "Diccionari",
        "Name[cs]": "Slovník",
        "Name[en_GB]": "Dictionary",
        "Name[es]": "Diccionario",
        "Name[fr]": "Dictionnaire",
        "Name[it]": "Dizionario",
        "Name[nl]": "Woordenboek",
        "Name[pt]": "Dicionário",
        "Name[pt_BR]": "Dicionário",
        "Name[sv]": "Ordlista",
        "Name[uk]": "Словник",
        "Name[vi]": "Từ điển",
        "Name[x-test]": "xxDictionaryxx",
        "ServiceTypes": [
            "Plasma/Applet"
        ],
        "Version": "1.0",
        "Website": "https://kde.org/plasma-desktop/"
    },
    "X-Plasma-API": "declarativeappletscript",
    "X-Plasma-MainScript": "ui/main.qml"
}
