{
    "KPlugin": {
        "Description": "Plugin for Plasma PoTD Engine",
        "Description[ar]": "ملحق لمحرك PoTD",
        "Description[az]": "Plasma Comic mühərriki üçün qoşma",
        "Description[ca]": "Connector per al motor PoTD del Plasma",
        "Description[cs]": "Modul pro Plasma PoTD engine",
        "Description[en_GB]": "Plugin for Plasma PoTD Engine",
        "Description[es]": "Complemento para el motor de imagen del día de Plasma",
        "Description[fr]": "Module externe pour le moteur « PoTD » de Plasma",
        "Description[it]": "Estensione per il motore PoTD di Plasma",
        "Description[nl]": "Plug-in voor Plasma-PoTD-engine",
        "Description[pt]": "'Plugin' para o Motor PoTD do Plasma",
        "Description[pt_BR]": "Plugin para o mecanismo PoTD do Plasma",
        "Description[sv]": "Insticksprogram för Plasma gränssnitt till dagens bild",
        "Description[uk]": "Додаток для рушія Плазми PoTD",
        "Description[vi]": "Phần cài cắm cho dụng cụ Plasma \"Ảnh của ngày\"",
        "Description[x-test]": "xxPlugin for Plasma PoTD Enginexx"
    }
}
