{
    "KPlugin": {
        "Authors": [
            {
                "Email": "damu@iki.fi",
                "Name": "Petri Damstén",
                "Name[az]": "Petri Damstén",
                "Name[ca]": "Petri Damstén",
                "Name[cs]": "Petri Damstén",
                "Name[en_GB]": "Petri Damstén",
                "Name[es]": "Petri Damstén",
                "Name[fr]": "Petri Damstén",
                "Name[it]": "Petri Damstén",
                "Name[nl]": "Petri Damstén",
                "Name[pt]": "Petri Damstén",
                "Name[pt_BR]": "Petri Damstén",
                "Name[sv]": "Petri Damstén",
                "Name[uk]": "Petri Damstén",
                "Name[vi]": "Petri Damstén",
                "Name[x-test]": "xxPetri Damsténxx"
            }
        ],
        "Description": "Comic Package Structure",
        "Description[ar]": "بنية حزمة Comic",
        "Description[az]": "Komikslər paketinin quruluşu",
        "Description[ca]": "Estructura de paquet de còmic",
        "Description[cs]": "Struktura komiksového balíčku",
        "Description[en_GB]": "Comic Package Structure",
        "Description[es]": "Estructura de un paquete de cómic",
        "Description[fr]": "Structure de paquet de bandes dessinées",
        "Description[it]": "Struttura pacchetto fumetto",
        "Description[nl]": "Stripboek-pakketstructuur",
        "Description[pt]": "Estrutura do Pacote de Banda Desenhada",
        "Description[pt_BR]": "Estrutura do pacote de tirinha",
        "Description[sv]": "Seriepaketstruktur",
        "Description[uk]": "Структура пакунка коміксів",
        "Description[vi]": "Cấu trúc gói Truyện tranh",
        "Description[x-test]": "xxComic Package Structurexx",
        "EnabledByDefault": true,
        "Id": "Plasma/Comic",
        "License": "GPLv2+",
        "Name": "Comic",
        "Name[ar]": "Comic",
        "Name[az]": "Komikslər",
        "Name[ca]": "Còmic",
        "Name[cs]": "Komiks",
        "Name[en_GB]": "Comic",
        "Name[es]": "Cómic",
        "Name[fr]": "Bandes dessinées",
        "Name[it]": "Fumetto",
        "Name[nl]": "Stripverhaal",
        "Name[pt]": "Banda Desenhada",
        "Name[pt_BR]": "Tirinha",
        "Name[sv]": "Serie",
        "Name[uk]": "Комікси",
        "Name[vi]": "Truyện tranh",
        "Name[x-test]": "xxComicxx",
        "Version": "pre0.1",
        "Website": "https://kde.org/plasma-desktop/"
    },
    "X-Plasma-PackageFileFilter": "*.comic",
    "X-Plasma-PackageFileMimetypes": "application/zip"
}
