{
    "KPlugin": {
        "Authors": [
            {
                "Email": "Jason@zx2c4.com",
                "Name": "Jason A. Donenfeld",
                "Name[az]": "Jason A. Donenfeld",
                "Name[ca]": "Jason A. Donenfeld",
                "Name[cs]": "Jason A. Donenfeld",
                "Name[en_GB]": "Jason A. Donenfeld",
                "Name[es]": "Jason A. Donenfeld",
                "Name[fr]": "Jason A. Donenfeld",
                "Name[it]": "Jason A. Donenfeld",
                "Name[nl]": "Jason A. Donenfeld",
                "Name[pt]": "Jason A. Donenfeld",
                "Name[pt_BR]": "Jason A. Donenfeld",
                "Name[sv]": "Jason A. Donenfeld",
                "Name[uk]": "Jason A. Donenfeld",
                "Name[vi]": "Jason A. Donenfeld",
                "Name[x-test]": "xxJason A. Donenfeldxx"
            }
        ],
        "Description": "Define words",
        "Description[ar]": "تعريف الكلمات",
        "Description[az]": "Sözlərin tanınması",
        "Description[ca]": "Defineix mots",
        "Description[cs]": "Definujte slova",
        "Description[en_GB]": "Define words",
        "Description[es]": "Definir palabras",
        "Description[fr]": "Définir des mots",
        "Description[it]": "Definizione delle parole",
        "Description[nl]": "Woorden definiëren",
        "Description[pt]": "Definir as palavras",
        "Description[pt_BR]": "Definição de palavras",
        "Description[sv]": "Definiera ord",
        "Description[uk]": "Визначення термінів",
        "Description[vi]": "Định nghĩa từ",
        "Description[x-test]": "xxDefine wordsxx",
        "EnabledByDefault": true,
        "Icon": "accessories-dictionary",
        "Id": "Dictionary",
        "License": "LGPL",
        "Name": "Dictionary",
        "Name[ar]": "قاموس",
        "Name[az]": "Lüğət",
        "Name[ca]": "Diccionari",
        "Name[cs]": "Slovník",
        "Name[en_GB]": "Dictionary",
        "Name[es]": "Diccionario",
        "Name[fr]": "Dictionnaire",
        "Name[it]": "Dizionario",
        "Name[nl]": "Woordenboek",
        "Name[pt]": "Dicionário",
        "Name[pt_BR]": "Dicionário",
        "Name[sv]": "Ordlista",
        "Name[uk]": "Словник",
        "Name[vi]": "Từ điển",
        "Name[x-test]": "xxDictionaryxx"
    }
}
