{
    "KPlugin": {
        "Authors": [
            {
                "Email": "dev.larpon@gmail.com",
                "Name": "Lars Pontoppidan",
                "Name[az]": "Lars Pontoppidan",
                "Name[ca]": "Lars Pontoppidan",
                "Name[cs]": "Lars Pontoppidan",
                "Name[en_GB]": "Lars Pontoppidan",
                "Name[es]": "Lars Pontoppidan",
                "Name[fr]": "Lars Pontoppidan",
                "Name[it]": "Lars Pontoppidan",
                "Name[nl]": "Lars Pontoppidan",
                "Name[pt]": "Lars Pontoppidan",
                "Name[pt_BR]": "Lars Pontoppidan",
                "Name[sv]": "Lars Pontoppidan",
                "Name[uk]": "Lars Pontoppidan",
                "Name[vi]": "Lars Pontoppidan",
                "Name[x-test]": "xxLars Pontoppidanxx"
            }
        ],
        "Category": "Utilities",
        "Description": "(Picture) Frame",
        "Description[az]": "(Şəkil) Çərçivə",
        "Description[ca]": "Marc (fotografies)",
        "Description[cs]": "Rámeček (obrázku)",
        "Description[en_GB]": "(Picture) Frame",
        "Description[es]": "Marco (de imagen)",
        "Description[fr]": "Trame (Image)",
        "Description[it]": "(Immagine) Cornice",
        "Description[nl]": "(Afbeelding) frame",
        "Description[pt]": "Moldura (Imagem)",
        "Description[pt_BR]": "Quadro (Imagens)",
        "Description[sv]": "Bildram",
        "Description[uk]": "(Картинна) рамка",
        "Description[vi]": "Khung (ảnh)",
        "Description[x-test]": "xx(Picture) Framexx",
        "EnabledByDefault": true,
        "Icon": "image-x-generic",
        "Id": "org.kde.plasma.mediaframe",
        "License": "GPL-2.0+",
        "Name": "Media Frame",
        "Name[az]": "Fotoçərçivə",
        "Name[ca]": "Marc multimèdia",
        "Name[cs]": "Rámec médií",
        "Name[en_GB]": "Media Frame",
        "Name[es]": "Marco multimedia",
        "Name[fr]": "Trame de média",
        "Name[it]": "Cornice media",
        "Name[nl]": "Mediaframe",
        "Name[pt]": "Moldura de Conteúdos",
        "Name[pt_BR]": "Quadro multimídia",
        "Name[sv]": "Mediaram",
        "Name[uk]": "Медіарамка",
        "Name[vi]": "Khung phương tiện",
        "Name[x-test]": "xxMedia Framexx",
        "ServiceTypes": [
            "Plasma/Applet"
        ],
        "Version": "1.0",
        "Website": "https://kde.org/plasma-desktop/"
    },
    "X-Plasma-API": "declarativeappletscript",
    "X-Plasma-DropMimeTypes": [
        "inode/directory",
        "image/jpeg",
        "image/png",
        "image/svg+xml",
        "image/svg+xml-compressed",
        "image/bmp"
    ],
    "X-Plasma-MainScript": "ui/main.qml",
    "X-Plasma-StandAloneApp": true
}
