{
    "KPlugin": {
        "Authors": [
            {
                "Email": "jesperht@yahoo.com",
                "Name": "Jesper Thomschutz",
                "Name[az]": "Jesper Thomschutz",
                "Name[ca]": "Jesper Thomschutz",
                "Name[cs]": "Jesper Thomschutz",
                "Name[en_GB]": "Jesper Thomschutz",
                "Name[es]": "Jesper Thomschutz",
                "Name[fr]": "Jesper Thomschutz",
                "Name[it]": "Jesper Thomschutz",
                "Name[nl]": "Jesper Thomschutz",
                "Name[pt]": "Jesper Thomschutz",
                "Name[pt_BR]": "Jesper Thomschutz",
                "Name[sv]": "Jesper Thomschutz",
                "Name[uk]": "Jesper Thomschutz",
                "Name[vi]": "Jesper Thomschutz",
                "Name[x-test]": "xxJesper Thomschutzxx"
            }
        ],
        "Category": "Fun and Games",
        "Description": "Put the pieces in order",
        "Description[ar]": "ضع القطع في مكانها الصحيح",
        "Description[az]": "Hissələri cərgə ilə düzün",
        "Description[ca]": "Poseu les peces en ordre",
        "Description[cs]": "Zkuste dílky správně poskládat",
        "Description[en_GB]": "Put the pieces in order",
        "Description[es]": "Colocar las fichas en orden",
        "Description[fr]": "Mettre les pièces dans l'ordre",
        "Description[it]": "Rimetti i pezzi in ordine",
        "Description[nl]": "Zet de stukken in de juiste volgorde",
        "Description[pt]": "Colocar as peças por ordem",
        "Description[pt_BR]": "Coloque as peças em ordem",
        "Description[sv]": "Placera brickorna i ordning",
        "Description[uk]": "Спробуйте впорядкувати плитки",
        "Description[vi]": "Đảo các ô về đúng thứ tự",
        "Description[x-test]": "xxPut the pieces in orderxx",
        "Icon": "fifteenpuzzle",
        "Id": "org.kde.plasma.fifteenpuzzle",
        "License": "GPL-2.0+",
        "Name": "Fifteen Puzzle",
        "Name[ar]": "أحجية الخمسة عشر",
        "Name[az]": "On beş tapmaca",
        "Name[ca]": "Trencaclosques quinze",
        "Name[cs]": "Hra Patnáct",
        "Name[en_GB]": "Fifteen Puzzle",
        "Name[es]": "Rompecabezas «Quince»",
        "Name[fr]": "Puzzle à 15 pièces",
        "Name[it]": "Il gioco del quindici",
        "Name[nl]": "Vijftien-puzzel",
        "Name[pt]": "Puzzle dos Quinze",
        "Name[pt_BR]": "Quebra-cabeça quinze",
        "Name[sv]": "Femtonspel",
        "Name[uk]": "Гра у п’ятнашки",
        "Name[vi]": "Trò chơi đảo ô",
        "Name[x-test]": "xxFifteen Puzzlexx",
        "ServiceTypes": [
            "Plasma/Applet"
        ],
        "Version": "1.0",
        "Website": "https://kde.org/plasma-desktop/"
    },
    "X-KDE-ParentApp": "",
    "X-Plasma-API": "declarativeappletscript",
    "X-Plasma-MainScript": "ui/main.qml",
    "X-Plasma-StandAloneApp": true
}
